^C:\Users\AMCV\source\repos\15\15\15.vcxproj
C:\Users\AMCV\source\repos\15\Release\15.ipdb
C:\Users\AMCV\source\repos\15\Release\15.iobj
^C:\Users\AMCV\source\repos\15\15\15.vcxproj
C:\Users\AMCV\source\repos\15\Release\15.ipdb
C:\Users\AMCV\source\repos\15\Release\15.iobj
^C:\Users\AMCV\source\repos\15\15\15.vcxproj
C:\Users\AMCV\source\repos\15\Release\15.ipdb
C:\Users\AMCV\source\repos\15\Release\15.iobj
^C:\Users\AMCV\source\repos\15\15\15.vcxproj
C:\Users\AMCV\source\repos\15\Release\15.ipdb
C:\Users\AMCV\source\repos\15\Release\15.iobj
^C:\Users\AMCV\source\repos\15\15\15.vcxproj
C:\Users\AMCV\source\repos\15\Release\15.ipdb
C:\Users\AMCV\source\repos\15\Release\15.iobj
^C:\Users\AMCV\source\repos\15\15\15.vcxproj
C:\Users\AMCV\source\repos\15\Release\15.ipdb
C:\Users\AMCV\source\repos\15\Release\15.iobj
^C:\Users\AMCV\source\repos\15\15\15.vcxproj
C:\Users\AMCV\source\repos\15\Release\15.ipdb
C:\Users\AMCV\source\repos\15\Release\15.iobj
^C:\Users\AMCV\source\repos\15\15\15.vcxproj
C:\Users\AMCV\source\repos\15\Release\15.ipdb
C:\Users\AMCV\source\repos\15\Release\15.iobj
^C:\Users\AMCV\source\repos\15\15\15.vcxproj
C:\Users\AMCV\source\repos\15\Release\15.ipdb
C:\Users\AMCV\source\repos\15\Release\15.iobj
^C:\Users\AMCV\source\repos\15\15\15.vcxproj
C:\Users\AMCV\source\repos\15\Release\15.ipdb
C:\Users\AMCV\source\repos\15\Release\15.iobj
^C:\Users\AMCV\source\repos\15\15\15.vcxproj
C:\Users\AMCV\source\repos\15\Release\15.ipdb
C:\Users\AMCV\source\repos\15\Release\15.iobj
^C:\Users\AMCV\source\repos\15\15\15.vcxproj
C:\Users\AMCV\source\repos\15\Release\15.ipdb
C:\Users\AMCV\source\repos\15\Release\15.iobj
^C:\Users\AMCV\source\repos\15\15\15.vcxproj
C:\Users\AMCV\source\repos\15\Release\15.ipdb
C:\Users\AMCV\source\repos\15\Release\15.iobj
^C:\Users\AMCV\source\repos\15\15\15.vcxproj
C:\Users\AMCV\source\repos\15\Release\15.ipdb
C:\Users\AMCV\source\repos\15\Release\15.iobj
^C:\Users\AMCV\source\repos\15\15\15.vcxproj
C:\Users\AMCV\source\repos\15\Release\15.ipdb
C:\Users\AMCV\source\repos\15\Release\15.iobj
^C:\Users\AMCV\source\repos\15\15\15.vcxproj
C:\Users\AMCV\source\repos\15\Release\15.ipdb
C:\Users\AMCV\source\repos\15\Release\15.iobj
^C:\Users\AMCV\source\repos\15\15\15.vcxproj
C:\Users\AMCV\source\repos\15\Release\15.ipdb
C:\Users\AMCV\source\repos\15\Release\15.iobj
^C:\Users\AMCV\source\repos\15\15\15.vcxproj
C:\Users\AMCV\source\repos\15\Release\15.ipdb
C:\Users\AMCV\source\repos\15\Release\15.iobj
^C:\Users\AMCV\source\repos\15\15\15.vcxproj
C:\Users\AMCV\source\repos\15\Release\15.ipdb
C:\Users\AMCV\source\repos\15\Release\15.iobj
^C:\Users\AMCV\source\repos\15\15\15.vcxproj
C:\Users\AMCV\source\repos\15\Release\15.ipdb
C:\Users\AMCV\source\repos\15\Release\15.iobj
^C:\Users\AMCV\source\repos\15\15\15.vcxproj
C:\Users\AMCV\source\repos\15\Release\15.ipdb
C:\Users\AMCV\source\repos\15\Release\15.iobj
^C:\Users\AMCV\source\repos\15\15\15.vcxproj
C:\Users\AMCV\source\repos\15\Release\15.ipdb
C:\Users\AMCV\source\repos\15\Release\15.iobj
^C:\Users\AMCV\source\repos\15\15\15.vcxproj
C:\Users\AMCV\source\repos\15\Release\15.ipdb
C:\Users\AMCV\source\repos\15\Release\15.iobj
^C:\Users\AMCV\source\repos\15\15\15.vcxproj
C:\Users\AMCV\source\repos\15\Release\15.ipdb
C:\Users\AMCV\source\repos\15\Release\15.iobj
^C:\Users\AMCV\source\repos\15\15\15.vcxproj
C:\Users\AMCV\source\repos\15\Release\15.ipdb
C:\Users\AMCV\source\repos\15\Release\15.iobj
^C:\Users\AMCV\source\repos\15\15\15.vcxproj
C:\Users\AMCV\source\repos\15\Release\15.ipdb
C:\Users\AMCV\source\repos\15\Release\15.iobj
^C:\Users\AMCV\source\repos\15\15\15.vcxproj
C:\Users\AMCV\source\repos\15\Release\15.ipdb
C:\Users\AMCV\source\repos\15\Release\15.iobj
